{
    "frames": [
        {
            "filename": "smoke",
            "frame": {
                "w": 119,
                "h": 116,
                "x": 0,
                "y": 0
            },
            "anchor": {
                "x": 0.5,
                "y": 0.5
            }
        },
        {
            "filename": "smoke1",
            "frame": {
                "w": 122,
                "h": 117,
                "x": 119,
                "y": 0
            },
            "anchor": {
                "x": 0.5,
                "y": 0.5
            }
        },
        {
            "filename": "smoke2",
            "frame": {
                "w": 126,
                "h": 125,
                "x": 241,
                "y": 0
            },
            "anchor": {
                "x": 0.5,
                "y": 0.5
            }
        },
        {
            "filename": "smoke3",
            "frame": {
                "w": 126,
                "h": 125,
                "x": 367,
                "y": 0
            },
            "anchor": {
                "x": 0.5,
                "y": 0.5
            }
        },
        {
            "filename": "smoke4",
            "frame": {
                "w": 125,
                "h": 125,
                "x": 493,
                "y": 0
            },
            "anchor": {
                "x": 0.5,
                "y": 0.5
            }
        }
    ],
    "meta": {
        "description": "Atlas generado con Atlas Packer Gamma V2",
        "web": "https://gammafp.github.io/atlas-packer-phaser/"
    }
}